{
  "type": "service_account",
  "project_id": "socialmedia-a792a",
  "private_key_id": "9708559fda24d20eaa5c0704930e717bae845bb7",
  "private_key": "-----BEGIN PRIVATE KEY-----\nMIIEvgIBADANBgkqhkiG9w0BAQEFAASCBKgwggSkAgEAAoIBAQCt/2H9AWO0dmsV\nNOT+lyFZp5J8JaDUgA8K0Uodkz/2vtWVOA5bRTkQmSOGqlHsCfEDIuNHqMlNrGDM\nofi4M1MGA1GxB3JEskL97AHK74QAY0ttvSDWqiTZA+cHouyhp4tkNEEGrJqI4Rpp\nfd0NI6hX3IB1RbGlbWufN7TQa9jOa//mLOrQDIhsjEjEOLIj2Ewrpclz/xmOgTW7\n+OedbK/qUZ9nVydHdFBpXYteZigWlpAmSz5kr0cZsS1owJv/RyE5qNaFCkk+pKQV\nE3QdWIj1yFRODPBZg2Av/4zRfreO0fE5ZqVyDh87/MZVoOFosjbXL+0y/2+WOrA/\nyK1SXtvvAgMBAAECggEACizTlaCVrJF6PKC9vXeoDx6iDdmDeLnOZ2MK0wTv6iWJ\nxvKiwEqhhit2bOMb7FI+gmDxapjfwMeSV5UnPtpdgg4Congdgg/so/2/sxbjoMQt\nvoqfV35Wrkwwn/0ymld6as81eEbyuIt1aHLgUOrjZtPxvSnotBRchVCUJdYQtS15\n8EWxYyhaitk4gVZf1MdhfxQQfY8rPTZ8EpYyy1fk541B0rOGIUluge683rtzE457\np10ZLe4VrR1hR/IdTxdF6FuqQdShN+xxMyn0y+sm1I9GC5wtZ2ciuooajDPn1Ysq\nEjF6JFo9GZVUmPEhivckP9mHZmPCIFGOzMQ9p0jCWQKBgQDdmee68sJaLhg8VijF\nSNaSZl+VJvFbRtuhkE44quSR9RkfPt/RxujasnFmmgTn6yMZ8AzcJDTq64g7n1du\nwh12iNEVCMT4Y14h6ONDtGWmSfj+KJLI6aW82Yfh1zD0D3Wocj8Y3gWbA8mqc2M4\nvZy74uwgPqVeP8OkhDVGSBOjNwKBgQDJAchdqfCovIPsMkltIRARlAHdwc3unZD8\neDK5Q8cfoaWOJ6QzFLJZd+qWSnQqwsakvw+OXpX5PY2MREqIgOO68ndTkjASMoBy\nXjV3/c9EFKQcm8KPqyVE6IfTtBpk6oldXGjSKKozvao6wl0FaOApbcicKiV2w5ln\nsNGYkZBZCQKBgQCAnXPugDknB/vPAR62qjjHTZ2KPsj0diLBGbUclKsGv59uEBrt\ncSnyzICe0SOpy0JbKoT8PBNuiXdPS4L+aLGa+3uGXsmbdGjM+5Lz177rjaFzOe8/\npsQn4IVKIZBrBpH+SxiuASZ1uvQP9tqOsxZFwkXTzShDlHSjhow5F1o2bwKBgQCQ\nMg0w1AZmpcXlnTV7aeqDEbA9CxjWAobN9tQ8f1jLYkTHs7xhQImpERNieUrYmh2y\ndbWNJmFkCToP07W8MuorZGEhvI9rnnrykI6+437akgwg0cRDGD2GL2GxB1Sf7Hha\nVz6C9NUUhQ0nVeMxTEjyr2ToUnvJtQvJjNjvIA1zMQKBgCABkTQIHSzslPkNkhcy\nBya/skZRDusLCqTD7kZg7oFpm1gii2d9/dfnHUoyY7/xagtT89LWzr98dYvAnUUn\n4SvhdpncTgOKQEGB2Crxls9qtJv0NBsg8lBAsg7S8QUZxQrDDHVLAZRB22xsRJbd\niP/+iNr2nudgLRYI4ZZD9DJE\n-----END PRIVATE KEY-----\n",
  "client_email": "firebase-adminsdk-j4162@socialmedia-a792a.iam.gserviceaccount.com",
  "client_id": "116601295704480096279",
  "auth_uri": "https://accounts.google.com/o/oauth2/auth",
  "token_uri": "https://oauth2.googleapis.com/token",
  "auth_provider_x509_cert_url": "https://www.googleapis.com/oauth2/v1/certs",
  "client_x509_cert_url": "https://www.googleapis.com/robot/v1/metadata/x509/firebase-adminsdk-j4162%40socialmedia-a792a.iam.gserviceaccount.com"
}
